{
    "status": "success",
    "data": {
        "drivers": [
            {
                "id": "08ae17ea-6fb2-4264-8b88-17d42be744d0",
                "user_type": "",
                "jalopy_id": 0,
                "public_id": "D477964",
                "authentication_id": "c463852b-7500-48e1-b1b0-95b28a54bf38",
                "account_status": "ACTIVE",
                "account_status_reason": "",
                "phone_number": "+639996615586",
                "country_code": 63,
                "first_name": "Tess name 1213216",
                "middle_name": "Testing",
                "last_name": "Load_UAT",
                "email": "1213216@angkas.com",
                "avatar_url": "https://ui-avatars.com/api/?name=R+T\u0026background=random",
                "license_number": "ABCDE12345678",
                "license_expiry_date": "",
                "vehicle_number": "1341341",
                "vehicle_make": "Yotoya",
                "tnv_violation": false,
                "service_zone": "MNL",
                "created_at": "2024-04-04T18:24:03.471858Z",
                "updated_at": "2024-04-11T12:24:23.387873Z"
            },
            {
                "id": "81cdde01-f5ff-42e4-9977-3cae568a9ece",
                "user_type": "",
                "jalopy_id": 0,
                "public_id": "D157049",
                "authentication_id": "c09fa71b-c357-43c1-b13d-c79d25677881",
                "account_status": "ACTIVE",
                "account_status_reason": "",
                "phone_number": "+639996436230",
                "country_code": 63,
                "first_name": "Tess name 920258",
                "middle_name": "Testing",
                "last_name": "Load_UAT",
                "email": "920258@angkas.com",
                "avatar_url": "https://ui-avatars.com/api/?name=R+T\u0026background=random",
                "license_number": "ABCDE12345678",
                "license_expiry_date": "",
                "vehicle_number": "1341341",
                "vehicle_make": "Yotoya",
                "tnv_violation": false,
                "service_zone": "MNL",
                "created_at": "2024-03-25T07:40:08.498282Z",
                "updated_at": "2024-03-25T17:55:30.440006Z"
            },
            {
                "id": "6402fea0-46d5-4062-aaaa-8670dfe1964f",
                "user_type": "",
                "jalopy_id": 0,
                "public_id": "D284783",
                "authentication_id": "9809e17b-565e-4666-a24a-4a3933f8a994",
                "account_status": "ACTIVE",
                "account_status_reason": "",
                "phone_number": "+639996863069",
                "country_code": 63,
                "first_name": "Tess name 1577947",
                "middle_name": "Testing",
                "last_name": "Load_UAT",
                "email": "1577947@angkas.com",
                "avatar_url": "https://ui-avatars.com/api/?name=R+T\u0026background=random",
                "license_number": "ABCDE12345678",
                "license_expiry_date": "",
                "vehicle_number": "1341341",
                "vehicle_make": "Yotoya",
                "tnv_violation": false,
                "service_zone": "MNL",
                "created_at": "2024-03-25T19:33:17.179295Z",
                "updated_at": "2024-04-01T18:32:20.115757Z"
            },
            {
                "id": "338b8ce4-c7a9-47cc-9ae0-e778f4536e20",
                "user_type": "",
                "jalopy_id": 0,
                "public_id": "D157534",
                "authentication_id": "dc476162-dac7-4b48-8194-6e15378a6130",
                "account_status": "ACTIVE",
                "account_status_reason": "",
                "phone_number": "+639996438192",
                "country_code": 63,
                "first_name": "Tess name 923336",
                "middle_name": "Testing",
                "last_name": "Load_UAT",
                "email": "923336@angkas.com",
                "avatar_url": "https://ui-avatars.com/api/?name=R+T\u0026background=random",
                "license_number": "ABCDE12345678",
                "license_expiry_date": "",
                "vehicle_number": "1341341",
                "vehicle_make": "Yotoya",
                "tnv_violation": false,
                "service_zone": "MNL",
                "created_at": "2024-03-25T07:40:35.913882Z",
                "updated_at": "2024-03-27T00:48:17.525719Z"
            },
            {
                "id": "5b5628a2-966a-44ff-8b57-b1a4979dc296",
                "user_type": "",
                "jalopy_id": 0,
                "public_id": "D231974",
                "authentication_id": "",
                "account_status": "DEACTIVATED",
                "account_status_reason": "",
                "phone_number": "+639996588846",
                "country_code": 63,
                "first_name": "Tess name 1158763",
                "middle_name": "Testing",
                "last_name": "Load_UAT",
                "email": "1158763@angkas.com",
                "avatar_url": "https://ui-avatars.com/api/?name=R+T\u0026background=random",
                "license_number": "ABCDE12345678",
                "license_expiry_date": "",
                "vehicle_number": "1341341",
                "vehicle_make": "Yotoya",
                "tnv_violation": false,
                "service_zone": "MNL",
                "created_at": "2024-03-25T18:28:03.616919Z",
                "updated_at": "2024-03-27T04:33:25.975735Z"
            },
            {
                "id": "d4369e08-686d-4617-826f-c58a190eaae3",
                "user_type": "",
                "jalopy_id": 12345,
                "public_id": "D23",
                "authentication_id": "6629ab4c-6d0e-4fbb-8c83-9894789a8d40",
                "account_status": "ACTIVE",
                "account_status_reason": "test",
                "phone_number": "+639611258877",
                "country_code": 63,
                "first_name": "Carnia",
                "middle_name": "",
                "last_name": "Navales",
                "email": "",
                "avatar_url": "https://ui-avatars.com/api/?name=R+T\u0026background=random",
                "license_number": "ABCDE12345678",
                "license_expiry_date": "",
                "vehicle_number": "MOTOR MODEL",
                "vehicle_make": "Yamaha",
                "tnv_violation": false,
                "service_zone": "MNL",
                "terms_accepted_at": "2023-08-11T07:55:47.832964Z",
                "created_at": "2023-08-11T07:48:26.261944Z",
                "updated_at": "2024-04-04T07:26:03.280397Z"
            },
            {
                "id": "2d5335de-6782-40b4-9361-3f1a1e401652",
                "user_type": "",
                "jalopy_id": 0,
                "public_id": "D157250",
                "authentication_id": "23cc3a8e-a422-461b-bdb2-33edddde8590",
                "account_status": "ACTIVE",
                "account_status_reason": "",
                "phone_number": "+639996436129",
                "country_code": 63,
                "first_name": "Tess name 920126",
                "middle_name": "Testing",
                "last_name": "Load_UAT",
                "email": "920126@angkas.com",
                "avatar_url": "https://ui-avatars.com/api/?name=R+T\u0026background=random",
                "license_number": "ABCDE12345678",
                "license_expiry_date": "",
                "vehicle_number": "1341341",
                "vehicle_make": "Yotoya",
                "tnv_violation": false,
                "service_zone": "MNL",
                "created_at": "2024-03-25T07:40:18.190533Z",
                "updated_at": "2024-04-01T17:50:23.525956Z"
            },
            {
                "id": "b24e9c20-fdd4-4bf8-9e3d-d306c2d2a1a2",
                "user_type": "",
                "jalopy_id": 0,
                "public_id": "D157354",
                "authentication_id": "6de00c3c-5aac-46a1-8e6b-b3dde5724dcc",
                "account_status": "ACTIVE",
                "account_status_reason": "",
                "phone_number": "+639996437373",
                "country_code": 63,
                "first_name": "Tess name 921957",
                "middle_name": "Testing",
                "last_name": "Load_UAT",
                "email": "921957@angkas.com",
                "avatar_url": "https://ui-avatars.com/api/?name=R+T\u0026background=random",
                "license_number": "ABCDE12345678",
                "license_expiry_date": "",
                "vehicle_number": "1341341",
                "vehicle_make": "Yotoya",
                "tnv_violation": false,
                "service_zone": "MNL",
                "created_at": "2024-03-25T07:40:23.348599Z",
                "updated_at": "2024-04-01T17:50:31.108594Z"
            },
            {
                "id": "1120d86e-a486-4f1a-b492-91321418c3d3",
                "user_type": "",
                "jalopy_id": 0,
                "public_id": "D224347",
                "authentication_id": "dc99c9a3-0efd-44d8-930d-7ed0f15a8514",
                "account_status": "ACTIVE",
                "account_status_reason": "",
                "phone_number": "+639996551656",
                "country_code": 63,
                "first_name": "Tess name 1101771",
                "middle_name": "Testing",
                "last_name": "Load_UAT",
                "email": "1101771@angkas.com",
                "avatar_url": "https://ui-avatars.com/api/?name=R+T\u0026background=random",
                "license_number": "ABCDE12345678",
                "license_expiry_date": "",
                "vehicle_number": "1341341",
                "vehicle_make": "Yotoya",
                "tnv_violation": false,
                "service_zone": "MNL",
                "created_at": "2024-03-25T18:19:45.036786Z",
                "updated_at": "2024-04-03T11:05:17.213228Z"
            },
            {
                "id": "84c79f3f-baed-4277-90b8-cfa7b2922169",
                "user_type": "",
                "jalopy_id": 0,
                "public_id": "D10",
                "authentication_id": "fd5b14d0-c1f9-477f-a833-50aa3aecd0c5",
                "account_status": "ACTIVE",
                "account_status_reason": "",
                "phone_number": "+639116237165",
                "country_code": 63,
                "first_name": "Roosel",
                "middle_name": "Middle",
                "last_name": "Man",
                "email": "",
                "avatar_url": "https://ui-avatars.com/api/?name=R+T\u0026background=random",
                "license_number": "ABCDE12345678",
                "license_expiry_date": "",
                "vehicle_number": "1341341",
                "vehicle_make": "Yotoya",
                "tnv_violation": false,
                "service_zone": "MNL",
                "terms_accepted_at": "2024-04-24T08:56:40.264675Z",
                "created_at": "2023-08-10T11:01:16.628015Z",
                "updated_at": "2024-04-24T08:56:40.264675Z"
            }
        ],
        "pagination": {
            "total_count": 550439,
            "total_pages": 55044,
            "page": 1,
            "page_size": 10
        }
    }
}